<svg xmlns="http://www.w3.org/2000/svg" width="16" height="9" viewBox="0 0 16 9">
  <path id="Chevron" d="M7.153,15.674.219,8.543a.783.783,0,0,1,0-1.086L7.153.326a1.062,1.062,0,0,1,1.53,0,1.136,1.136,0,0,1,0,1.573L2.752,8l5.932,6.1a1.137,1.137,0,0,1,0,1.574,1.062,1.062,0,0,1-1.53,0" transform="translate(0 9) rotate(-90)" fill="#d2d2d2"/>
</svg>
