<svg xmlns="http://www.w3.org/2000/svg" width="8" height="10" viewBox="0 0 8 10">
  <path id="map-marker" d="M8,2A4,4,0,0,0,4,6c0,2.7,3.525,5.75,3.675,5.88a.5.5,0,0,0,.65,0C8.5,11.75,12,8.7,12,6A4,4,0,0,0,8,2Zm0,8.825C6.935,9.825,5,7.67,5,6a3,3,0,0,1,6,0C11,7.67,9.065,9.83,8,10.825ZM8,4a2,2,0,1,0,2,2A2,2,0,0,0,8,4ZM8,7A1,1,0,1,1,9,6,1,1,0,0,1,8,7Z" transform="translate(-4 -2)" fill="#131c3d"/>
</svg>
