<svg xmlns="http://www.w3.org/2000/svg" width="55" height="53" viewBox="0 0 55 53">
  <path id="global" d="M55.414,19.6v-.133A27.528,27.528,0,0,0,29.54,2.029,27.528,27.528,0,0,0,3.666,19.466s0,0,0,.133a25.333,25.333,0,0,0,0,17.86s0,0,0,.133A27.528,27.528,0,0,0,29.54,55.029,27.528,27.528,0,0,0,55.414,37.592v-.133a25.333,25.333,0,0,0,0-17.86ZM8.157,33.845a20.072,20.072,0,0,1,0-10.631h5.125a42.9,42.9,0,0,0,0,10.631Zm2.259,5.316h3.858a31.613,31.613,0,0,0,2.755,6.83,21.591,21.591,0,0,1-6.613-6.83ZM14.275,17.9H10.417a21.577,21.577,0,0,1,6.53-6.83,31.589,31.589,0,0,0-2.673,6.83Zm12.455,31.1a16.82,16.82,0,0,1-6.7-9.834h6.7Zm0-15.149H18.849a36.825,36.825,0,0,1,0-10.631h7.881Zm0-15.947h-6.7a16.82,16.82,0,0,1,6.7-9.834Zm21.823,0H44.695a31.613,31.613,0,0,0-2.755-6.83,21.591,21.591,0,0,1,6.613,6.83ZM32.24,8.064a16.82,16.82,0,0,1,6.7,9.834h-6.7Zm0,40.929V39.16h6.7a16.82,16.82,0,0,1-6.7,9.834Zm7.881-15.149H32.24V23.214h7.881A36.825,36.825,0,0,1,40.121,33.845Zm1.9,12.146a31.613,31.613,0,0,0,2.755-6.83h3.858A21.591,21.591,0,0,1,42.022,45.991Zm8.79-12.146H45.687a41.447,41.447,0,0,0,.331-5.316,41.753,41.753,0,0,0-.331-5.316h5.125A20.072,20.072,0,0,1,50.812,33.845Z" transform="translate(-2.039 -2.029)" fill="#fff"/>
</svg>
