<svg xmlns="http://www.w3.org/2000/svg" width="16" height="20" viewBox="0 0 16 20">
  <path id="padlock" d="M12,13a1.49,1.49,0,0,0-1,2.61V17a1,1,0,0,0,2,0V15.61A1.49,1.49,0,0,0,12,13Zm5-4V7A5,5,0,1,0,7,7V9a3,3,0,0,0-3,3v7a3,3,0,0,0,3,3H17a3,3,0,0,0,3-3V12A3,3,0,0,0,17,9ZM9,7a3,3,0,1,1,6,0V9H9Zm9,12a1,1,0,0,1-1,1H7a1,1,0,0,1-1-1V12a1,1,0,0,1,1-1H17a1,1,0,0,1,1,1Z" transform="translate(-4 -2)" fill="#131c3d"/>
</svg>
